mini cooper.png,,,,,,,,
3/5 Doors,Cooper,Cooper D,Cooper S,Cooper SD,John Cooper Works,One,One D,
Cabrio Series,Cooper Cabrio,Cooper D Cabrio,Cooper S Cabrio,Cooper SD Cabrio,John Cooper Works Cabrio,One Cabrio,,
Clubman Series,Cooper Clubman,Cooper D Clubman,Cooper S Clubman,Cooper SD Clubman,John Cooper Works Clubman,One Clubman,One D Clubman,
Countyman Series,Cooper Countyman,Cooper D Countyman,Cooper S Countyman,Cooper SD Countyman,Cooper SE Countyman,John Cooper Works Countyman,One Countyman,One D Countyman
Coupe Series,Cooper Coupe,Cooper D Coupe,Cooper S Coupe,Cooper SD Coupe,John Cooper Works Coupe,,,
Paceman Series,Cooper Paceman,Cooper D Paceman,Cooper S Paceman,Cooper SD Paceman,John Cooper Works Paceman,,,
Others,,,,,,,,
